…
  return(list(moves, damage, category, learn))

}
```

``` r
get_moves("move",     move_info = 826, 
                      ailment=1,
                      battlestyle=1,
                      category=1,
                      damage=1,
                      target=1,
                      learn=1)
#> [[1]]
#> # A tibble: 23 x 8
#>       id name        accuracy power PowerPoint `move_ailments_api[["moves"]][[1]]` move_battleStyle~1 move_~2
#>    <int> <chr>          <int> <int>      <int> <chr>                               <chr>              <chr>  
#>  1   826 eerie-spell      100    80          5 thunder-punch                       attack             specif~
#>  2   826 eerie-spell      100    80          5 body-slam                           attack             specif~
#>  3   826 eerie-spell      100    80          5 stun-spore                          attack             specif~
#>  4   826 eerie-spell      100    80          5 thunder-shock                       attack             specif~
#>  5   826 eerie-spell      100    80          5 thunderbolt                         attack             specif~
#>  6   826 eerie-spell      100    80          5 thunder-wave                        attack             specif~
#>  7   826 eerie-spell      100    80          5 thunder                             attack             specif~
#>  8   826 eerie-spell      100    80          5 lick                                attack             specif~
#>  9   826 eerie-spell      100    80          5 glare                               attack             specif~
#> 10   826 eerie-spell      100    80          5 zap-cannon                          attack             specif~
#> # ... with 13 more rows, and abbreviated variable names 1: `move_battleStyle_api[["name"]]`,
#> #   2: `move_target_api[["name"]]`
…
